B+
A-
F
B+
B+
C
F
B+
B+
B+
B
B
B+
A
B+
B+
A
B+
A
B-
A
A
B+
A
B+
B-
D+
B-
B+
B+
D+
B+
B+
B+
F
B+
B+
A
D+
A
B+
A
B+
B+
A
D+
A
C+
D+
A
A
B-
B+
B-
B+
B+
A
B+
A
B+
A
B+
B+
B+
B+
D+
B+
B+
B+
B+
B+
B+
C+
A
B+
B+
A
B+
B+
C+
B+
B+
C
A-
A
A
D+
C+
B+
A
B
B+
B+
B+
B+
B+
B+
B+
D+
B-
B+
B+
B
B+
B+
C+
B-
B+
C
B+
B+
A
B+
B+
B+
B+
A
B+
A
A
B+
A
B+
B+
B+
B-
B+
B+
B+
A
B+
B-
B+
B+
A
B+
B+
B+
B-
A
B+
B+
A
B+
B+
B+
D+
B+
A
B+
D+
B+
B+
B+
B+
C+
B+
B+
B+
B-
A
B-
B-
B+
B-
A
B+
B+
A
B+
B+
A
A
B+
B+
A
B+
A
B+
D+
A-
B+
B+
B+
D+
D+
A
A
B+
A
A
B+
A
B-
A
B+
B+
D+
D+
B+
B+
D+
B+
D+
B+
B-
B+
A
D+
B+
B+
D+
B+
B+
A
A
B+
B+
A
C
A
B-
A
C+
F
B+
B+
B+
D+
B+
D+
C+
A
A
B+
B+
B+
B+
B+
B+
D+
C+
A-
B+
B+
D+
B+
A
A
B+
B-
F
B+
B+
A
B+
B-
D+
B+
A
A
B-
A
A-
D+
A
D+
B+
B+
B+
B+
B
B+
B+
A
B+
