D
F
F
D-
F
F
F
F
F
F
F
F
F
F
F
F
F
F
F
F
F
F
F
F
F
F
D-
F
F
F
F
F
F
F
F
F
F
F
F
F
F
F
F
F
C
F
F
F
C
F
F
F
F
F
F
F
D+
F
F
F
F
F
F
F
F
F
F
F
F
F
D-
F
F
F
F
F
F
D+
D-
D-
D-
F
F
F
F
F
D-
F
F
F
F
F
F
F
F
D+
F
F
F
F
F
F
F
D-
D-
D+
D-
D+
D
F
F
F
F
F
D-
F
F
F
F
F
F
F
F
F
F
F
F
F
F
F
F
D-
F
F
F
F
F
F
F
F
F
F
F
F
F
F
D-
F
F
F
F
F
F
F
F
F
F
F
D-
F
F
F
F
F
F
F
F
F
D-
F
F
F
F
F
F
F
F
F
F
F
F
D+
F
F
F
F
F
F
F
F
F
F
F
D-
D-
F
F
F
F
F
F
F
F
F
F
F
F
F
F
F
F
F
F
F
F
F
F
F
F
F
F
F
F
F
F
F
F
F
F
F
F
F
F
F
D+
F
F
F
F
F
F
F
F
F
F
F
F
F
F
F
F
D-
F
F
F
F
D+
F
F
F
F
F
F
F
F
F
F
D+
F
