A
A-
B+
B
B-
C+
C
F
F
F
F
F
D-
F
F
F
F
F
F
F
F
F
F
D+
F
F
F
F
D-
F
F
F
F
F
F
F
F
F
F
F
F
F
F
F
D+
F
F
F
F
F
F
D-
F
F
F
F
F
F
F
F
F
F
D
D-
F
F
F
F
F
F
F
F
F
F
F
F
F
F
F
F
F
F
F
F
F
F
F
F
F
F
F
C-
F
F
F
F
D
F
F
F
F
D+
D-
C-
F
F
F
F
F
F
F
F
F
F
F
F
F
F
F
F
F
F
F
F
F
F
F
F
F
F
F
F
F
F
D-
F
F
F
F
F
F
F
F
F
D-
D-
D-
F
F
F
D-
F
F
F
F
F
F
F
F
F
F
F
F
F
F
F
F
F
D-
F
F
F
F
F
F
F
D+
D-
F
F
F
F
F
F
F
F
F
F
F
F
F
F
F
F
F
D+
F
F
F
F
F
F
F
F
F
D-
F
F
F
F
F
F
F
F
F
F
F
F
F
F
F
F
F
F
F
F
F
F
F
F
F
F
F
D-
F
F
F
